5,-4,0,Muro
4,-4,0,Muro
3,-4,0,Muro
2,-4,0,Muro
-3,3,0,Caja
2,2,0,Muro
2,3,0,Muro
-3,2,0,Caja
0,1,0,Caja
0,0,0,Caja
1,-4,0,Muro
3,4,0,PuntoVictoria
8,2,0,PuntoVictoria
5,2,0,PuntoVictoria
8,4,0,PuntoVictoria
9,-5,0,Muro
9,-4,0,Muro
9,-3,0,Muro
9,-2,0,Muro
9,-1,0,Muro
9,4,0,Muro
4,4,0,Muro
4,3,0,Muro
4,2,0,Muro
4,1,0,Muro
4,0,0,Muro
2,4,0,Muro
-2,1,0,PuntoVictoria
-2,4,0,PuntoVictoria
-4,1,0,PuntoVictoria
1,0,0,Muro
-1,-2,0,Caja
4,-2,0,Muro
5,-2,0,Muro
1,-1,0,Muro
1,-2,0,Muro
2,-2,0,Muro
3,-2,0,Muro
-1,0,0,Muro
-2,0,0,Muro
-3,0,0,Muro
5,4,0,PuntoVictoria
-2,-1,0,Caja
-3,-2,0,Caja
-2,-3,0,Caja
-2,-2,0,Caja
-4,0,0,Muro
8,-4,0,Muro
8,-3,0,Muro
8,-2,0,Muro
8,-1,0,Muro
9,0,0,Muro
9,1,0,Muro
9,2,0,Muro
9,3,0,Muro
9,5,0,Muro
8,5,0,Muro
7,-5,0,Muro
8,-5,0,Muro
6,-5,0,Muro
6,5,0,Muro
7,5,0,Muro
5,5,0,Muro
4,5,0,Muro
3,5,0,Muro
2,5,0,Muro
1,5,0,Muro
0,5,0,Muro
-1,5,0,Muro
5,-5,0,Muro
4,-5,0,Muro
3,-5,0,Muro
2,-5,0,Muro
1,-5,0,Muro
0,-5,0,Muro
-1,-5,0,Muro
-2,-5,0,Muro
-2,5,0,Muro
-3,5,0,Muro
-3,-5,0,Muro
-4,-5,0,Muro
-5,5,0,Muro
-4,5,0,Muro
-5,4,0,Muro
-5,3,0,Muro
-5,2,0,Muro
-5,1,0,Muro
-5,0,0,Muro
-5,-1,0,Muro
-5,-2,0,Muro
-5,-3,0,Muro
-5,-4,0,Muro
-4,4,0,PuntoVictoria
-5,-5,0,Muro
-4,-4,0,Player
