3,0,0,Muro
3,1,0,Muro
3,2,0,Muro
3,3,0,Muro
3,4,0,Muro
2,4,0,Muro
3,-1,0,Muro
3,-2,0,Muro
1,0,0,Caja
1,1,0,Caja
0,-2,0,PuntoVictoria
0,0,0,PuntoVictoria
0,2,0,PuntoVictoria
-1,-1,0,PuntoVictoria
-1,0,0,PuntoVictoria
2,-2,0,Muro
2,-4,0,Muro
2,-3,0,Muro
1,2,0,Caja
-2,-1,0,Caja
-2,0,0,Caja
1,-4,0,Muro
-2,-2,0,Muro
-2,-3,0,Muro
-2,2,0,Muro
0,4,0,Muro
1,4,0,Muro
-1,-4,0,Muro
0,-4,0,Muro
-3,-4,0,Muro
-2,-4,0,Muro
-5,-4,0,Muro
-1,4,0,Muro
-3,4,0,Muro
-2,4,0,Muro
-4,4,0,Muro
-5,4,0,Muro
-5,3,0,Muro
-5,2,0,Muro
-5,1,0,Muro
-5,0,0,Muro
-5,-2,0,Muro
-5,-1,0,Muro
-5,-3,0,Muro
-4,1,0,Player
-1,1,0,PuntoVictoria
-4,-4,0,Muro
-2,1,0,Caja
-2,3,0,Muro
