%YAML 1.1
%TAG !u! tag:unity3d.com,2011:
--- !u!1045 &1
EditorBuildSettings:
  m_ObjectHideFlags: 0
  serializedVersion: 2
  m_Scenes:
  - enabled: 0
    path: Assets/Scenes/EditorNiveles.unity
    guid: 2cda990e2423bbf4892e6590ba056729
  - enabled: 1
    path: Assets/Scenes/Niveles/Nivel1.unity
    guid: 0239b940105ece447bafbe6c2444c393
  - enabled: 1
    path: Assets/Scenes/Niveles/Nivel2.unity
    guid: e1bc8177a431e4b42a97b15a67710e65
  - enabled: 1
    path: Assets/Scenes/Niveles/Nivel3.unity
    guid: 0d7798f96674c2c42ad3de4f2ff5959f
  - enabled: 1
    path: Assets/Scenes/Niveles/Nivel4.unity
    guid: 7b3f0da70046f5a4bad9805ea4d98a55
  - enabled: 1
    path: Assets/Scenes/Niveles/Nivel5.unity
    guid: 0c21e85f68c49244e97dc97bfdfa321d
  - enabled: 1
    path: Assets/Scenes/Niveles/Nivel6.unity
    guid: 3967f9bd656208040a1a1231705ff154
  - enabled: 1
    path: Assets/Scenes/Niveles/Nivel7.unity
    guid: ef85b39a819e4fa4d8bc2d236d8bfd6d
  - enabled: 1
    path: Assets/Scenes/Niveles/Nivel8.unity
    guid: 9428daaa19ff10e498f9bc7a02d49666
  - enabled: 1
    path: Assets/Scenes/Niveles/Nivel9.unity
    guid: cb2d0223bd1ff7440a6a5d7eaa6b3b84
  - enabled: 1
    path: Assets/Scenes/Niveles/Nivel10.unity
    guid: 43dd138b60377ab439e25c6b72dd085d
  m_configObjects: {}
